tests/example3.vcd
$date today $end
$timescale 1 ns $end
$scope module  $end
$scope module ax $end
$var integer 32 16 maxCount $end
$scope module axFilter $end
$var integer 32 0 Axi_in_data $end
$var integer 32 1 Axi_in_last $end
$var integer 32 2 Axi_in_ready $end
$var integer 32 3 Axi_in_valid $end
$var integer 32 4 Axi_out_data $end
$var integer 32 5 Axi_out_last $end
$var integer 32 6 Axi_out_ready $end
$var integer 32 7 Axi_out_valid $end
$var integer 32 8 clk $end
$upscope $end
$scope module axP $end
$var integer 32 9 Axi_in_data $end
$var integer 32 a Axi_in_last $end
$var integer 32 b Axi_in_ready $end
$var integer 32 c Axi_in_valid $end
$var integer 32 d clk $end
$upscope $end
$scope module axiSource $end
$var integer 32 e Axi_out_data $end
$var integer 32 f Axi_out_last $end
$var integer 32 10 Axi_out_ready $end
$var integer 32 11 Axi_out_valid $end
$var integer 32 12 MaxCount $end
$var integer 32 13 clk $end
$var integer 32 14 counter $end
$upscope $end
$scope module clkgen $end
$var integer 32 15 clk $end
$upscope $end
$upscope $end
$upscope $end
$enddefinitions $end
#0
$dumpvars
b0 0
b0 1
b0 2
b0 3
b0 4
b0 5
b0 6
b0 7
b0 8
b0 9
b0 a
b0 b
b0 c
b0 d
b0 e
b0 f
b0 10
b0 11
b10100 12
b0 13
b0 14
b0 15
b10100 16
$end
#20
b0 9
b0 15
b0 8
b0 13
b0 d
b0 8
#30
b1 9
b1 15
b1 8
b1 13
b1 d
b1 8
b1 14
b1 6
b1 11
b1 b
b1 2
b1 2
b1 3
b1 6
b1 10
#40
b0 9
b0 15
b0 8
b0 13
b0 d
b0 8
#50
b1 9
b1 15
b1 8
b1 13
b1 d
b1 8
b10 14
b1 6
b1 11
b1 e
b1 b
b1 2
b1 7
b1 2
b1 3
b1 0
b1 6
b1 10
b1 c
#60
b0 9
b0 15
b0 8
b0 13
b0 d
b0 8
#70
b1 9
b1 15
b1 8
b1 13
b1 d
b1 8
b11 14
b1 6
b1 11
b10 e
b1 b
b1 2
b1 7
b1 4
b1 2
b1 3
b10 0
b1 6
b1 10
b1 c
b1 9
#80
b0 9
b0 15
b0 8
b0 13
b0 d
b0 8
#90
b1 9
b1 15
b1 8
b1 13
b1 d
b1 8
b100 14
b1 6
b1 11
b11 e
b1 b
b1 2
b1 7
b10 4
b1 2
b1 3
b11 0
b1 6
b1 10
b1 c
b10 9
#100
b0 9
b0 15
b0 8
b0 13
b0 d
b0 8
#110
b1 9
b1 15
b1 8
b1 13
b1 d
b1 8
b101 14
b1 6
b1 11
b100 e
b1 b
b1 2
b1 7
b11 4
b1 2
b1 3
b100 0
b1 6
b1 10
b1 c
b11 9
#120
b0 9
b0 15
b0 8
b0 13
b0 d
b0 8
#130
b1 9
b1 15
b1 8
b1 13
b1 d
b1 8
b110 14
b1 6
b1 11
b101 e
b1 b
b1 2
b1 7
b100 4
b1 2
b1 3
b101 0
b1 6
b1 10
b1 c
b100 9
#140
b0 9
b0 15
b0 8
b0 13
b0 d
b0 8
#150
b1 9
b1 15
b1 8
b1 13
b1 d
b1 8
b111 14
b1 6
b1 11
b110 e
b1 b
b1 2
b1 7
b101 4
b1 2
b1 3
b110 0
b1 6
b1 10
b1 c
b101 9
#160
b0 9
b0 15
b0 8
b0 13
b0 d
b0 8
#170
b1 9
b1 15
b1 8
b1 13
b1 d
b1 8
b1000 14
b1 6
b1 11
b111 e
b1 b
b1 2
b1 7
b110 4
b1 2
b1 3
b111 0
b1 6
b1 10
b1 c
b110 9
#180
b0 9
b0 15
b0 8
b0 13
b0 d
b0 8
#190
b1 9
b1 15
b1 8
b1 13
b1 d
b1 8
b1001 14
b1 6
b1 11
b1000 e
b1 b
b1 2
b1 7
b111 4
b1 2
b1 3
b1000 0
b1 6
b1 10
b1 c
b111 9
#200
b0 9
b0 15
b0 8
b0 13
b0 d
b0 8
#210
b1 9
b1 15
b1 8
b1 13
b1 d
b1 8
b1010 14
b1 6
b1 11
b1001 e
b1 b
b1 2
b1 7
b1000 4
b1 2
b1 3
b1001 0
b1 6
b1 10
b1 c
b1000 9
#220
b0 9
b0 15
b0 8
b0 13
b0 d
b0 8
#230
b1 9
b1 15
b1 8
b1 13
b1 d
b1 8
b1011 14
b1 6
b1 11
b1010 e
b1 b
b1 2
b1 7
b1001 4
b1 2
b1 3
b1010 0
b1 6
b1 10
b1 c
b1001 9
#240
b0 9
b0 15
b0 8
b0 13
b0 d
b0 8
#250
b1 9
b1 15
b1 8
b1 13
b1 d
b1 8
b1100 14
b1 6
b1 11
b1011 e
b1 b
b1 2
b0 7
b0 4
b1 2
b1 3
b1011 0
b1 6
b1 10
b0 c
b0 9
#260
b0 9
b0 15
b0 8
b0 13
b0 d
b0 8
#270
b1 9
b1 15
b1 8
b1 13
b1 d
b1 8
b1101 14
b1 6
b1 11
b1100 e
b1 b
b1 2
b1 2
b1 3
b1100 0
b1 6
b1 10
#280
b0 9
b0 15
b0 8
b0 13
b0 d
b0 8
#290
b1 9
b1 15
b1 8
b1 13
b1 d
b1 8
b1110 14
b1 6
b1 11
b1101 e
b1 b
b1 2
b1 2
b1 3
b1101 0
b1 6
b1 10
#300
b0 9
b0 15
b0 8
b0 13
b0 d
b0 8
#310
b1 9
b1 15
b1 8
b1 13
b1 d
b1 8
b1111 14
b1 6
b1 11
b1110 e
b1 b
b1 2
b1 2
b1 3
b1110 0
b1 6
b1 10
#320
b0 9
b0 15
b0 8
b0 13
b0 d
b0 8
#330
b1 9
b1 15
b1 8
b1 13
b1 d
b1 8
b10000 14
b1 6
b1 11
b1111 e
b1 b
b1 2
b1 2
b1 3
b1111 0
b1 6
b1 10
#340
b0 9
b0 15
b0 8
b0 13
b0 d
b0 8
#350
b1 9
b1 15
b1 8
b1 13
b1 d
b1 8
b10001 14
b1 6
b1 11
b10000 e
b1 b
b1 2
b1 2
b1 3
b10000 0
b1 6
b1 10
#360
b0 9
b0 15
b0 8
b0 13
b0 d
b0 8
#370
b1 9
b1 15
b1 8
b1 13
b1 d
b1 8
b10010 14
b1 6
b1 11
b10001 e
b1 b
b1 2
b1 2
b1 3
b10001 0
b1 6
b1 10
#380
b0 9
b0 15
b0 8
b0 13
b0 d
b0 8
#390
b1 9
b1 15
b1 8
b1 13
b1 d
b1 8
b10011 14
b1 6
b1 11
b10010 e
b1 b
b1 2
b1 2
b1 3
b10010 0
b1 6
b1 10
#400
b0 9
b0 15
b0 8
b0 13
b0 d
b0 8
#410
b1 9
b1 15
b1 8
b1 13
b1 d
b1 8
b10100 14
b1 6
b1 11
b10011 e
b1 b
b1 2
b1 2
b1 3
b10011 0
b1 6
b1 10
#420
b0 9
b0 15
b0 8
b0 13
b0 d
b0 8
#430
b1 9
b1 15
b1 8
b1 13
b1 d
b1 8
b10101 14
b1 6
b1 11
b10100 e
b1 b
b1 2
b1 2
b1 3
b10100 0
b1 6
b1 10
#440
b0 9
b0 15
b0 8
b0 13
b0 d
b0 8
#450
b1 9
b1 15
b1 8
b1 13
b1 d
b1 8
b0 14
b1 6
b1 11
b10101 e
b1 b
b1 2
b1 2
b1 3
b10101 0
b1 6
b1 10
#460
b0 9
b0 15
b0 8
b0 13
b0 d
b0 8
#470
b1 9
b1 15
b1 8
b1 13
b1 d
b1 8
b1 14
b1 6
b1 11
b0 e
b1 b
b1 2
b1 2
b1 3
b0 0
b1 6
b1 10
#480
b0 9
b0 15
b0 8
b0 13
b0 d
b0 8
#490
b1 9
b1 15
b1 8
b1 13
b1 d
b1 8
b10 14
b1 6
b1 11
b1 e
b1 b
b1 2
b1 7
b1 2
b1 3
b1 0
b1 6
b1 10
b1 c
#500
b0 9
b0 15
b0 8
b0 13
b0 d
b0 8
#510
b1 9
b1 15
b1 8
b1 13
b1 d
b1 8
b11 14
b1 6
b1 11
b10 e
b1 b
b1 2
b1 7
b1 4
b1 2
b1 3
b10 0
b1 6
b1 10
b1 c
b1 9
#520
b0 9
b0 15
b0 8
b0 13
b0 d
b0 8
#530
b1 9
b1 15
b1 8
b1 13
b1 d
b1 8
b100 14
b1 6
b1 11
b11 e
b1 b
b1 2
b1 7
b10 4
b1 2
b1 3
b11 0
b1 6
b1 10
b1 c
b10 9
#540
b0 9
b0 15
b0 8
b0 13
b0 d
b0 8
#550
b1 9
b1 15
b1 8
b1 13
b1 d
b1 8
b101 14
b1 6
b1 11
b100 e
b1 b
b1 2
b1 7
b11 4
b1 2
b1 3
b100 0
b1 6
b1 10
b1 c
b11 9
#560
b0 9
b0 15
b0 8
b0 13
b0 d
b0 8
#570
b1 9
b1 15
b1 8
b1 13
b1 d
b1 8
b110 14
b1 6
b1 11
b101 e
b1 b
b1 2
b1 7
b100 4
b1 2
b1 3
b101 0
b1 6
b1 10
b1 c
b100 9
#580
b0 9
b0 15
b0 8
b0 13
b0 d
b0 8
#590
b1 9
b1 15
b1 8
b1 13
b1 d
b1 8
b111 14
b1 6
b1 11
b110 e
b1 b
b1 2
b1 7
b101 4
b1 2
b1 3
b110 0
b1 6
b1 10
b1 c
b101 9
#600
b0 9
b0 15
b0 8
b0 13
b0 d
b0 8
#610
b1 9
b1 15
b1 8
b1 13
b1 d
b1 8
b1000 14
b1 6
b1 11
b111 e
b1 b
b1 2
b1 7
b110 4
b1 2
b1 3
b111 0
b1 6
b1 10
b1 c
b110 9
#620
b0 9
b0 15
b0 8
b0 13
b0 d
b0 8
#630
b1 9
b1 15
b1 8
b1 13
b1 d
b1 8
b1001 14
b1 6
b1 11
b1000 e
b1 b
b1 2
b1 7
b111 4
b1 2
b1 3
b1000 0
b1 6
b1 10
b1 c
b111 9
#640
b0 9
b0 15
b0 8
b0 13
b0 d
b0 8
#650
b1 9
b1 15
b1 8
b1 13
b1 d
b1 8
b1010 14
b1 6
b1 11
b1001 e
b1 b
b1 2
b1 7
b1000 4
b1 2
b1 3
b1001 0
b1 6
b1 10
b1 c
b1000 9
#660
b0 9
b0 15
b0 8
b0 13
b0 d
b0 8
#670
b1 9
b1 15
b1 8
b1 13
b1 d
b1 8
b1011 14
b1 6
b1 11
b1010 e
b1 b
b1 2
b1 7
b1001 4
b1 2
b1 3
b1010 0
b1 6
b1 10
b1 c
b1001 9
#680
b0 9
b0 15
b0 8
b0 13
b0 d
b0 8
#690
b1 9
b1 15
b1 8
b1 13
b1 d
b1 8
b1100 14
b1 6
b1 11
b1011 e
b1 b
b1 2
b0 7
b0 4
b1 2
b1 3
b1011 0
b1 6
b1 10
b0 c
b0 9
#700
b0 9
b0 15
b0 8
b0 13
b0 d
b0 8
#710
b1 9
b1 15
b1 8
b1 13
b1 d
b1 8
b1101 14
b1 6
b1 11
b1100 e
b1 b
b1 2
b1 2
b1 3
b1100 0
b1 6
b1 10
#720
b0 9
b0 15
b0 8
b0 13
b0 d
b0 8
#730
b1 9
b1 15
b1 8
b1 13
b1 d
b1 8
b1110 14
b1 6
b1 11
b1101 e
b1 b
b1 2
b1 2
b1 3
b1101 0
b1 6
b1 10
#740
b0 9
b0 15
b0 8
b0 13
b0 d
b0 8
#750
b1 9
b1 15
b1 8
b1 13
b1 d
b1 8
b1111 14
b1 6
b1 11
b1110 e
b1 b
b1 2
b1 2
b1 3
b1110 0
b1 6
b1 10
#760
b0 9
b0 15
b0 8
b0 13
b0 d
b0 8
#770
b1 9
b1 15
b1 8
b1 13
b1 d
b1 8
b10000 14
b1 6
b1 11
b1111 e
b1 b
b1 2
b1 2
b1 3
b1111 0
b1 6
b1 10
#780
b0 9
b0 15
b0 8
b0 13
b0 d
b0 8
#790
b1 9
b1 15
b1 8
b1 13
b1 d
b1 8
b10001 14
b1 6
b1 11
b10000 e
b1 b
b1 2
b1 2
b1 3
b10000 0
b1 6
b1 10
#800
b0 9
b0 15
b0 8
b0 13
b0 d
b0 8
#810
b1 9
b1 15
b1 8
b1 13
b1 d
b1 8
b10010 14
b1 6
b1 11
b10001 e
b1 b
b1 2
b1 2
b1 3
b10001 0
b1 6
b1 10
#820
b0 9
b0 15
b0 8
b0 13
b0 d
b0 8
#830
b1 9
b1 15
b1 8
b1 13
b1 d
b1 8
b10011 14
b1 6
b1 11
b10010 e
b1 b
b1 2
b1 2
b1 3
b10010 0
b1 6
b1 10
#840
b0 9
b0 15
b0 8
b0 13
b0 d
b0 8
#850
b1 9
b1 15
b1 8
b1 13
b1 d
b1 8
b10100 14
b1 6
b1 11
b10011 e
b1 b
b1 2
b1 2
b1 3
b10011 0
b1 6
b1 10
#860
b0 9
b0 15
b0 8
b0 13
b0 d
b0 8
#870
b1 9
b1 15
b1 8
b1 13
b1 d
b1 8
b10101 14
b1 6
b1 11
b10100 e
b1 b
b1 2
b1 2
b1 3
b10100 0
b1 6
b1 10
#880
b0 9
b0 15
b0 8
b0 13
b0 d
b0 8
#890
b1 9
b1 15
b1 8
b1 13
b1 d
b1 8
b0 14
b1 6
b1 11
b10101 e
b1 b
b1 2
b1 2
b1 3
b10101 0
b1 6
b1 10
#900
b0 9
b0 15
b0 8
b0 13
b0 d
b0 8
#910
b1 9
b1 15
b1 8
b1 13
b1 d
b1 8
b1 14
b1 6
b1 11
b0 e
b1 b
b1 2
b1 2
b1 3
b0 0
b1 6
b1 10
#920
b0 9
b0 15
b0 8
b0 13
b0 d
b0 8
#930
b1 9
b1 15
b1 8
b1 13
b1 d
b1 8
b10 14
b1 6
b1 11
b1 e
b1 b
b1 2
b1 7
b1 2
b1 3
b1 0
b1 6
b1 10
b1 c
#940
b0 9
b0 15
b0 8
b0 13
b0 d
b0 8
#950
b1 9
b1 15
b1 8
b1 13
b1 d
b1 8
b11 14
b1 6
b1 11
b10 e
b1 b
b1 2
b1 7
b1 4
b1 2
b1 3
b10 0
b1 6
b1 10
b1 c
b1 9
#960
b0 9
b0 15
b0 8
b0 13
b0 d
b0 8
#970
b1 9
b1 15
b1 8
b1 13
b1 d
b1 8
b100 14
b1 6
b1 11
b11 e
b1 b
b1 2
b1 7
b10 4
b1 2
b1 3
b11 0
b1 6
b1 10
b1 c
b10 9
#980
b0 9
b0 15
b0 8
b0 13
b0 d
b0 8
#990
b1 9
b1 15
b1 8
b1 13
b1 d
b1 8
b101 14
b1 6
b1 11
b100 e
b1 b
b1 2
b1 7
b11 4
b1 2
b1 3
b100 0
b1 6
b1 10
b1 c
b11 9
#1000
b0 9
b0 15
b0 8
b0 13
b0 d
b0 8
