tests/example4.vcd
$date today $end
$timescale 1 ns $end
$scope module  $end
$scope module ax $end
$var integer 32 1 maxCount $end
$scope module clkgen $end
$var integer 32 0 clk $end
$upscope $end
$scope module pipe1_1_rollingCounter $end
$var integer 32 2 Axi_out_data $end
$var integer 32 3 Axi_out_last $end
$var integer 32 4 Axi_out_ready $end
$var integer 32 5 Axi_out_valid $end
$var integer 32 6 MaxCount $end
$var integer 32 7 clk $end
$var integer 32 8 counter $end
$upscope $end
$scope module pipe1_2_axiFilter $end
$var integer 32 9 Axi_in_data $end
$var integer 32 a Axi_in_last $end
$var integer 32 b Axi_in_ready $end
$var integer 32 c Axi_in_valid $end
$var integer 32 d Axi_out_data $end
$var integer 32 e Axi_out_last $end
$var integer 32 f Axi_out_ready $end
$var integer 32 10 Axi_out_valid $end
$var integer 32 11 clk $end
$upscope $end
$scope module pipe1_3_axiPrint $end
$var integer 32 12 Axi_in_data $end
$var integer 32 13 Axi_in_last $end
$var integer 32 14 Axi_in_ready $end
$var integer 32 15 Axi_in_valid $end
$var integer 32 16 clk $end
$upscope $end
$upscope $end
$upscope $end
$enddefinitions $end
#0
$dumpvars
b0 0
b10100 1
b0 2
b0 3
b0 4
b0 5
b10100 6
b0 7
b0 8
b0 9
b0 a
b0 b
b0 c
b0 d
b0 e
b0 f
b0 10
b0 11
b0 12
b0 13
b0 14
b0 15
b0 16
$end
#20
b0 0
b0 7
b0 11
b0 16
#30
b1 0
b1 7
b1 11
b1 16
b1 8
b1 5
b1 b
b1 14
b1 c
b1 4
b1 f
#40
b0 0
b0 7
b0 11
b0 16
#50
b1 0
b1 7
b1 11
b1 16
b10 8
b1 5
b1 2
b1 b
b1 10
b1 14
b1 c
b1 9
b1 4
b1 15
b1 f
#60
b0 0
b0 7
b0 11
b0 16
#70
b1 0
b1 7
b1 11
b1 16
b11 8
b1 5
b10 2
b1 b
b1 10
b1 d
b1 14
b1 c
b10 9
b1 4
b1 15
b1 12
b1 f
#80
b0 0
b0 7
b0 11
b0 16
#90
b1 0
b1 7
b1 11
b1 16
b100 8
b1 5
b11 2
b1 b
b1 10
b10 d
b1 14
b1 c
b11 9
b1 4
b1 15
b10 12
b1 f
#100
b0 0
b0 7
b0 11
b0 16
#110
b1 0
b1 7
b1 11
b1 16
b101 8
b1 5
b100 2
b1 b
b1 10
b11 d
b1 14
b1 c
b100 9
b1 4
b1 15
b11 12
b1 f
#120
b0 0
b0 7
b0 11
b0 16
#130
b1 0
b1 7
b1 11
b1 16
b110 8
b1 5
b101 2
b1 b
b1 10
b100 d
b1 14
b1 c
b101 9
b1 4
b1 15
b100 12
b1 f
#140
b0 0
b0 7
b0 11
b0 16
#150
b1 0
b1 7
b1 11
b1 16
b111 8
b1 5
b110 2
b1 b
b1 10
b101 d
b1 14
b1 c
b110 9
b1 4
b1 15
b101 12
b1 f
#160
b0 0
b0 7
b0 11
b0 16
#170
b1 0
b1 7
b1 11
b1 16
b1000 8
b1 5
b111 2
b1 b
b1 10
b110 d
b1 14
b1 c
b111 9
b1 4
b1 15
b110 12
b1 f
#180
b0 0
b0 7
b0 11
b0 16
#190
b1 0
b1 7
b1 11
b1 16
b1001 8
b1 5
b1000 2
b1 b
b1 10
b111 d
b1 14
b1 c
b1000 9
b1 4
b1 15
b111 12
b1 f
#200
b0 0
b0 7
b0 11
b0 16
#210
b1 0
b1 7
b1 11
b1 16
b1010 8
b1 5
b1001 2
b1 b
b1 10
b1000 d
b1 14
b1 c
b1001 9
b1 4
b1 15
b1000 12
b1 f
#220
b0 0
b0 7
b0 11
b0 16
#230
b1 0
b1 7
b1 11
b1 16
b1011 8
b1 5
b1010 2
b1 b
b1 10
b1001 d
b1 14
b1 c
b1010 9
b1 4
b1 15
b1001 12
b1 f
#240
b0 0
b0 7
b0 11
b0 16
#250
b1 0
b1 7
b1 11
b1 16
b1100 8
b1 5
b1011 2
b1 b
b0 10
b0 d
b1 14
b1 c
b1011 9
b1 4
b0 15
b0 12
b1 f
#260
b0 0
b0 7
b0 11
b0 16
#270
b1 0
b1 7
b1 11
b1 16
b1101 8
b1 5
b1100 2
b1 b
b1 14
b1 c
b1100 9
b1 4
b1 f
#280
b0 0
b0 7
b0 11
b0 16
#290
b1 0
b1 7
b1 11
b1 16
b1110 8
b1 5
b1101 2
b1 b
b1 14
b1 c
b1101 9
b1 4
b1 f
#300
b0 0
b0 7
b0 11
b0 16
#310
b1 0
b1 7
b1 11
b1 16
b1111 8
b1 5
b1110 2
b1 b
b1 14
b1 c
b1110 9
b1 4
b1 f
#320
b0 0
b0 7
b0 11
b0 16
#330
b1 0
b1 7
b1 11
b1 16
b10000 8
b1 5
b1111 2
b1 b
b1 14
b1 c
b1111 9
b1 4
b1 f
#340
b0 0
b0 7
b0 11
b0 16
#350
b1 0
b1 7
b1 11
b1 16
b10001 8
b1 5
b10000 2
b1 b
b1 14
b1 c
b10000 9
b1 4
b1 f
#360
b0 0
b0 7
b0 11
b0 16
#370
b1 0
b1 7
b1 11
b1 16
b10010 8
b1 5
b10001 2
b1 b
b1 14
b1 c
b10001 9
b1 4
b1 f
#380
b0 0
b0 7
b0 11
b0 16
#390
b1 0
b1 7
b1 11
b1 16
b10011 8
b1 5
b10010 2
b1 b
b1 14
b1 c
b10010 9
b1 4
b1 f
#400
b0 0
b0 7
b0 11
b0 16
#410
b1 0
b1 7
b1 11
b1 16
b10100 8
b1 5
b10011 2
b1 b
b1 14
b1 c
b10011 9
b1 4
b1 f
#420
b0 0
b0 7
b0 11
b0 16
#430
b1 0
b1 7
b1 11
b1 16
b10101 8
b1 5
b10100 2
b1 b
b1 14
b1 c
b10100 9
b1 4
b1 f
#440
b0 0
b0 7
b0 11
b0 16
#450
b1 0
b1 7
b1 11
b1 16
b0 8
b1 5
b10101 2
b1 b
b1 14
b1 c
b10101 9
b1 4
b1 f
#460
b0 0
b0 7
b0 11
b0 16
#470
b1 0
b1 7
b1 11
b1 16
b1 8
b1 5
b0 2
b1 b
b1 14
b1 c
b0 9
b1 4
b1 f
#480
b0 0
b0 7
b0 11
b0 16
#490
b1 0
b1 7
b1 11
b1 16
b10 8
b1 5
b1 2
b1 b
b1 10
b1 14
b1 c
b1 9
b1 4
b1 15
b1 f
#500
b0 0
b0 7
b0 11
b0 16
#510
b1 0
b1 7
b1 11
b1 16
b11 8
b1 5
b10 2
b1 b
b1 10
b1 d
b1 14
b1 c
b10 9
b1 4
b1 15
b1 12
b1 f
#520
b0 0
b0 7
b0 11
b0 16
#530
b1 0
b1 7
b1 11
b1 16
b100 8
b1 5
b11 2
b1 b
b1 10
b10 d
b1 14
b1 c
b11 9
b1 4
b1 15
b10 12
b1 f
#540
b0 0
b0 7
b0 11
b0 16
#550
b1 0
b1 7
b1 11
b1 16
b101 8
b1 5
b100 2
b1 b
b1 10
b11 d
b1 14
b1 c
b100 9
b1 4
b1 15
b11 12
b1 f
#560
b0 0
b0 7
b0 11
b0 16
#570
b1 0
b1 7
b1 11
b1 16
b110 8
b1 5
b101 2
b1 b
b1 10
b100 d
b1 14
b1 c
b101 9
b1 4
b1 15
b100 12
b1 f
#580
b0 0
b0 7
b0 11
b0 16
#590
b1 0
b1 7
b1 11
b1 16
b111 8
b1 5
b110 2
b1 b
b1 10
b101 d
b1 14
b1 c
b110 9
b1 4
b1 15
b101 12
b1 f
#600
b0 0
b0 7
b0 11
b0 16
#610
b1 0
b1 7
b1 11
b1 16
b1000 8
b1 5
b111 2
b1 b
b1 10
b110 d
b1 14
b1 c
b111 9
b1 4
b1 15
b110 12
b1 f
#620
b0 0
b0 7
b0 11
b0 16
#630
b1 0
b1 7
b1 11
b1 16
b1001 8
b1 5
b1000 2
b1 b
b1 10
b111 d
b1 14
b1 c
b1000 9
b1 4
b1 15
b111 12
b1 f
#640
b0 0
b0 7
b0 11
b0 16
#650
b1 0
b1 7
b1 11
b1 16
b1010 8
b1 5
b1001 2
b1 b
b1 10
b1000 d
b1 14
b1 c
b1001 9
b1 4
b1 15
b1000 12
b1 f
#660
b0 0
b0 7
b0 11
b0 16
#670
b1 0
b1 7
b1 11
b1 16
b1011 8
b1 5
b1010 2
b1 b
b1 10
b1001 d
b1 14
b1 c
b1010 9
b1 4
b1 15
b1001 12
b1 f
#680
b0 0
b0 7
b0 11
b0 16
#690
b1 0
b1 7
b1 11
b1 16
b1100 8
b1 5
b1011 2
b1 b
b0 10
b0 d
b1 14
b1 c
b1011 9
b1 4
b0 15
b0 12
b1 f
#700
b0 0
b0 7
b0 11
b0 16
#710
b1 0
b1 7
b1 11
b1 16
b1101 8
b1 5
b1100 2
b1 b
b1 14
b1 c
b1100 9
b1 4
b1 f
#720
b0 0
b0 7
b0 11
b0 16
#730
b1 0
b1 7
b1 11
b1 16
b1110 8
b1 5
b1101 2
b1 b
b1 14
b1 c
b1101 9
b1 4
b1 f
#740
b0 0
b0 7
b0 11
b0 16
#750
b1 0
b1 7
b1 11
b1 16
b1111 8
b1 5
b1110 2
b1 b
b1 14
b1 c
b1110 9
b1 4
b1 f
#760
b0 0
b0 7
b0 11
b0 16
#770
b1 0
b1 7
b1 11
b1 16
b10000 8
b1 5
b1111 2
b1 b
b1 14
b1 c
b1111 9
b1 4
b1 f
#780
b0 0
b0 7
b0 11
b0 16
#790
b1 0
b1 7
b1 11
b1 16
b10001 8
b1 5
b10000 2
b1 b
b1 14
b1 c
b10000 9
b1 4
b1 f
#800
b0 0
b0 7
b0 11
b0 16
#810
b1 0
b1 7
b1 11
b1 16
b10010 8
b1 5
b10001 2
b1 b
b1 14
b1 c
b10001 9
b1 4
b1 f
#820
b0 0
b0 7
b0 11
b0 16
#830
b1 0
b1 7
b1 11
b1 16
b10011 8
b1 5
b10010 2
b1 b
b1 14
b1 c
b10010 9
b1 4
b1 f
#840
b0 0
b0 7
b0 11
b0 16
#850
b1 0
b1 7
b1 11
b1 16
b10100 8
b1 5
b10011 2
b1 b
b1 14
b1 c
b10011 9
b1 4
b1 f
#860
b0 0
b0 7
b0 11
b0 16
#870
b1 0
b1 7
b1 11
b1 16
b10101 8
b1 5
b10100 2
b1 b
b1 14
b1 c
b10100 9
b1 4
b1 f
#880
b0 0
b0 7
b0 11
b0 16
#890
b1 0
b1 7
b1 11
b1 16
b0 8
b1 5
b10101 2
b1 b
b1 14
b1 c
b10101 9
b1 4
b1 f
#900
b0 0
b0 7
b0 11
b0 16
#910
b1 0
b1 7
b1 11
b1 16
b1 8
b1 5
b0 2
b1 b
b1 14
b1 c
b0 9
b1 4
b1 f
#920
b0 0
b0 7
b0 11
b0 16
#930
b1 0
b1 7
b1 11
b1 16
b10 8
b1 5
b1 2
b1 b
b1 10
b1 14
b1 c
b1 9
b1 4
b1 15
b1 f
#940
b0 0
b0 7
b0 11
b0 16
#950
b1 0
b1 7
b1 11
b1 16
b11 8
b1 5
b10 2
b1 b
b1 10
b1 d
b1 14
b1 c
b10 9
b1 4
b1 15
b1 12
b1 f
#960
b0 0
b0 7
b0 11
b0 16
#970
b1 0
b1 7
b1 11
b1 16
b100 8
b1 5
b11 2
b1 b
b1 10
b10 d
b1 14
b1 c
b11 9
b1 4
b1 15
b10 12
b1 f
#980
b0 0
b0 7
b0 11
b0 16
#990
b1 0
b1 7
b1 11
b1 16
b101 8
b1 5
b100 2
b1 b
b1 10
b11 d
b1 14
b1 c
b100 9
b1 4
b1 15
b11 12
b1 f
#1000
b0 0
b0 7
b0 11
b0 16
