tests/example2.vcd
$date today $end
$timescale 1 ns $end
$scope module  $end
$scope module ax $end
$var integer 32 0 Axi_out_data $end
$var integer 32 1 Axi_out_last $end
$var integer 32 2 Axi_out_ready $end
$var integer 32 3 Axi_out_valid $end
$var integer 32 a counter $end
$scope module axFil $end
$var integer 32 4 Axi_in_data $end
$var integer 32 5 Axi_in_last $end
$var integer 32 6 Axi_in_ready $end
$var integer 32 7 Axi_in_valid $end
$var integer 32 8 clk $end
$upscope $end
$scope module clkgen $end
$var integer 32 9 clk $end
$upscope $end
$upscope $end
$upscope $end
$enddefinitions $end
#0
$dumpvars
b0 0
b0 1
b0 2
b0 3
b0 4
b0 5
b0 6
b0 7
b0 8
b0 9
b0 a
$end
#20
b0 9
b0 8
#30
b1 9
b1 8
b1 a
b0 7
b1 3
b1 6
b1 7
b1 2
#40
b0 9
b0 8
#50
b1 9
b1 8
b10 a
b1 7
b1 3
b0 4
b1 0
b1 6
b1 7
b1 4
b1 2
#60
b0 9
b0 8
#70
b1 9
b1 8
b11 a
b1 7
b1 3
b1 4
b10 0
b1 6
b1 7
b10 4
b1 2
#80
b0 9
b0 8
#90
b1 9
b1 8
b100 a
b1 7
b1 3
b10 4
b11 0
b1 6
b1 7
b11 4
b1 2
#100
b0 9
b0 8
#110
b1 9
b1 8
b101 a
b1 7
b1 3
b11 4
b100 0
b1 6
b1 7
b100 4
b1 2
#120
b0 9
b0 8
#130
b1 9
b1 8
b110 a
b1 7
b1 3
b100 4
b101 0
b1 6
b1 7
b101 4
b1 2
#140
b0 9
b0 8
#150
b1 9
b1 8
b111 a
b1 7
b1 3
b101 4
b110 0
b1 6
b1 7
b110 4
b1 2
#160
b0 9
b0 8
#170
b1 9
b1 8
b1000 a
b1 7
b1 3
b110 4
b111 0
b1 6
b1 7
b111 4
b1 2
#180
b0 9
b0 8
#190
b1 9
b1 8
b1001 a
b1 7
b1 3
b111 4
b1000 0
b1 6
b1 7
b1000 4
b1 2
#200
b0 9
b0 8
#210
b1 9
b1 8
b1010 a
b1 7
b1 3
b1000 4
b1001 0
b1 6
b1 7
b1001 4
b1 2
#220
b0 9
b0 8
#230
b1 9
b1 8
b1011 a
b1 7
b1 3
b1001 4
b1010 0
b1 6
b1 7
b1010 4
b1 2
#240
b0 9
b0 8
#250
b1 9
b1 8
b1100 a
b1 7
b1 3
b1010 4
b1011 0
b1 6
b1 7
b1011 4
b1 2
#260
b0 9
b0 8
#270
b1 9
b1 8
b1101 a
b1 7
b1 3
b1011 4
b1100 0
b1 6
b1 7
b1100 4
b1 2
#280
b0 9
b0 8
#290
b1 9
b1 8
b1110 a
b1 7
b1 3
b1100 4
b1101 0
b1 6
b1 7
b1101 4
b1 2
#300
b0 9
b0 8
#310
b1 9
b1 8
b1111 a
b1 7
b1 3
b1101 4
b1110 0
b1 6
b1 7
b1110 4
b1 2
#320
b0 9
b0 8
#330
b1 9
b1 8
b10000 a
b1 7
b1 3
b1110 4
b1111 0
b1 6
b1 7
b1111 4
b1 2
#340
b0 9
b0 8
#350
b1 9
b1 8
b10001 a
b1 7
b1 3
b1111 4
b10000 0
b1 6
b1 7
b10000 4
b1 2
#360
b0 9
b0 8
#370
b1 9
b1 8
b10010 a
b1 7
b1 3
b10000 4
b10001 0
b1 6
b1 7
b10001 4
b1 2
#380
b0 9
b0 8
#390
b1 9
b1 8
b10011 a
b1 7
b1 3
b10001 4
b10010 0
b1 6
b1 7
b10010 4
b1 2
#400
b0 9
b0 8
#410
b1 9
b1 8
b10100 a
b1 7
b1 3
b10010 4
b10011 0
b1 6
b1 7
b10011 4
b1 2
#420
b0 9
b0 8
#430
b1 9
b1 8
b10101 a
b1 7
b1 3
b10011 4
b10100 0
b1 6
b1 7
b10100 4
b1 2
#440
b0 9
b0 8
#450
b1 9
b1 8
b10110 a
b1 7
b1 3
b10100 4
b10101 0
b1 6
b1 7
b10101 4
b1 2
#460
b0 9
b0 8
#470
b1 9
b1 8
b10111 a
b1 7
b1 3
b10101 4
b10110 0
b1 6
b1 7
b10110 4
b1 2
#480
b0 9
b0 8
#490
b1 9
b1 8
b11000 a
b1 7
b1 3
b10110 4
b10111 0
b1 6
b1 7
b10111 4
b1 2
#500
b0 9
b0 8
#510
b1 9
b1 8
b11001 a
b1 7
b1 3
b10111 4
b11000 0
b1 6
b1 7
b11000 4
b1 2
#520
b0 9
b0 8
#530
b1 9
b1 8
b11010 a
b1 7
b1 3
b11000 4
b11001 0
b1 6
b1 7
b11001 4
b1 2
#540
b0 9
b0 8
#550
b1 9
b1 8
b11011 a
b1 7
b1 3
b11001 4
b11010 0
b1 6
b1 7
b11010 4
b1 2
#560
b0 9
b0 8
#570
b1 9
b1 8
b11100 a
b1 7
b1 3
b11010 4
b11011 0
b1 6
b1 7
b11011 4
b1 2
#580
b0 9
b0 8
#590
b1 9
b1 8
b11101 a
b1 7
b1 3
b11011 4
b11100 0
b1 6
b1 7
b11100 4
b1 2
#600
b0 9
b0 8
#610
b1 9
b1 8
b11110 a
b1 7
b1 3
b11100 4
b11101 0
b1 6
b1 7
b11101 4
b1 2
#620
b0 9
b0 8
#630
b1 9
b1 8
b11111 a
b1 7
b1 3
b11101 4
b11110 0
b1 6
b1 7
b11110 4
b1 2
#640
b0 9
b0 8
#650
b1 9
b1 8
b100000 a
b1 7
b1 3
b11110 4
b11111 0
b1 6
b1 7
b11111 4
b1 2
#660
b0 9
b0 8
#670
b1 9
b1 8
b100001 a
b1 7
b1 3
b11111 4
b100000 0
b1 6
b1 7
b100000 4
b1 2
#680
b0 9
b0 8
#690
b1 9
b1 8
b100010 a
b1 7
b1 3
b100000 4
b100001 0
b1 6
b1 7
b100001 4
b1 2
#700
b0 9
b0 8
#710
b1 9
b1 8
b100011 a
b1 7
b1 3
b100001 4
b100010 0
b1 6
b1 7
b100010 4
b1 2
#720
b0 9
b0 8
#730
b1 9
b1 8
b100100 a
b1 7
b1 3
b100010 4
b100011 0
b1 6
b1 7
b100011 4
b1 2
#740
b0 9
b0 8
#750
b1 9
b1 8
b100101 a
b1 7
b1 3
b100011 4
b100100 0
b1 6
b1 7
b100100 4
b1 2
#760
b0 9
b0 8
#770
b1 9
b1 8
b100110 a
b1 7
b1 3
b100100 4
b100101 0
b1 6
b1 7
b100101 4
b1 2
#780
b0 9
b0 8
#790
b1 9
b1 8
b100111 a
b1 7
b1 3
b100101 4
b100110 0
b1 6
b1 7
b100110 4
b1 2
#800
b0 9
b0 8
#810
b1 9
b1 8
b101000 a
b1 7
b1 3
b100110 4
b100111 0
b1 6
b1 7
b100111 4
b1 2
#820
b0 9
b0 8
#830
b1 9
b1 8
b1 7
b0 3
b100111 4
b0 0
b1 6
b0 7
b0 4
b1 2
#840
b0 9
b0 8
#850
b1 9
b1 8
b1 6
b1 2
#860
b0 9
b0 8
#870
b1 9
b1 8
b1 6
b1 2
#880
b0 9
b0 8
#890
b1 9
b1 8
b1 6
b1 2
#900
b0 9
b0 8
#910
b1 9
b1 8
b1 6
b1 2
#920
b0 9
b0 8
#930
b1 9
b1 8
b1 6
b1 2
#940
b0 9
b0 8
#950
b1 9
b1 8
b1 6
b1 2
#960
b0 9
b0 8
#970
b1 9
b1 8
b1 6
b1 2
#980
b0 9
b0 8
#990
b1 9
b1 8
b1 6
b1 2
#1000
b0 9
b0 8
