tests/example1.vcd
$date today $end
$timescale 1 ns $end
$scope module  $end
$scope module ax $end
$var integer 32 0 clk $end
$var integer 32 1 counter $end
$upscope $end
$upscope $end
$enddefinitions $end
#0
$dumpvars
b0 0
b0 1
$end
#30
b0 0
#40
b1 0
b1 1
#60
b0 0
#70
b1 0
b10 1
#90
b0 0
#100
b1 0
b11 1
#120
b0 0
#130
b1 0
b100 1
#150
b0 0
#160
b1 0
b101 1
#180
b0 0
#190
b1 0
b110 1
#210
b0 0
#220
b1 0
b111 1
#240
b0 0
#250
b1 0
b1000 1
#270
b0 0
#280
b1 0
b1001 1
#300
b0 0
#310
b1 0
b1010 1
#330
b0 0
#340
b1 0
b1011 1
#360
b0 0
#370
b1 0
b1100 1
#390
b0 0
#400
b1 0
b1101 1
#420
b0 0
#430
b1 0
b1110 1
#450
b0 0
#460
b1 0
b1111 1
#480
b0 0
#490
b1 0
b10000 1
#510
b0 0
#520
b1 0
b10001 1
#540
b0 0
#550
b1 0
b10010 1
#570
b0 0
#580
b1 0
b10011 1
#600
b0 0
#610
b1 0
b10100 1
#630
b0 0
#640
b1 0
b10101 1
#660
b0 0
#670
b1 0
b10110 1
#690
b0 0
#700
b1 0
b10111 1
#720
b0 0
#730
b1 0
b11000 1
#750
b0 0
#760
b1 0
b11001 1
#780
b0 0
#790
b1 0
b11010 1
#810
b0 0
#820
b1 0
b11011 1
#840
b0 0
#850
b1 0
b11100 1
#870
b0 0
#880
b1 0
b11101 1
#900
b0 0
#910
b1 0
b11110 1
#930
b0 0
#940
b1 0
b11111 1
#960
b0 0
#970
b1 0
b100000 1
#990
b0 0
#1000
b1 0
b100001 1
